{
  "development": {
    "username": "vitalii_test",
    "password": "123qwe123",
    "database": "contacts_main_db",
    "host": "127.0.0.1",
    "port": 5432,
    "dialect": "postgres"
  },
  "test": {
    "username": "vitalii_test",
    "password": "123qwe123",
    "database": "postgresql-flat-85257",
    "host": "https://vitality-100500.herokuapp.com",
    "port": 5432,
    "dialect": "postgres"
  },
  "production": {
    "use_env_variable": "DATABASE_URL"
  }
}
